Ficheros2/microc_tb.vcd
$date
	Wed Nov 20 19:30:25 2024
$end
$version
	Icarus Verilog
$end
$timescale
	10ps
$end
$scope module microc_tb $end
$var wire 1 ! z $end
$var wire 6 " Opcode [5:0] $end
$var reg 3 # Op [2:0] $end
$var reg 1 $ clk $end
$var reg 1 % reset $end
$var reg 1 & s_inc $end
$var reg 1 ' s_inm $end
$var reg 1 ( we3 $end
$var reg 1 ) wez $end
$scope module microc1 $end
$var wire 3 * Op [2:0] $end
$var wire 1 $ clk $end
$var wire 1 % reset $end
$var wire 1 & s_inc $end
$var wire 1 ' s_inm $end
$var wire 1 ( we3 $end
$var wire 1 ) wez $end
$var wire 1 + zero $end
$var wire 1 ! z $end
$var wire 4 , salida_muxreg [3:0] $end
$var wire 8 - salida_muxalu [7:0] $end
$var wire 8 . WD3 [7:0] $end
$var wire 4 / WA3 [3:0] $end
$var wire 8 0 RD2 [7:0] $end
$var wire 8 1 RD1 [7:0] $end
$var wire 4 2 RA2 [3:0] $end
$var wire 4 3 RA1 [3:0] $end
$var wire 10 4 PC_nuevo [9:0] $end
$var wire 10 5 PC_incrementado [9:0] $end
$var wire 10 6 PC_actual [9:0] $end
$var wire 6 7 Opcode [5:0] $end
$var wire 16 8 Instruccion [15:0] $end
$var wire 8 9 Inmediato [7:0] $end
$var wire 10 : Dir_salto [9:0] $end
$scope module alu_inst $end
$var wire 3 ; Op [2:0] $end
$var wire 8 < B [7:0] $end
$var wire 8 = A [7:0] $end
$var reg 8 > S [7:0] $end
$var reg 1 + zero $end
$upscope $end
$scope module banco_registros $end
$var wire 4 ? RA1 [3:0] $end
$var wire 4 @ WA3 [3:0] $end
$var wire 8 A WD3 [7:0] $end
$var wire 1 $ clk $end
$var wire 1 ( we3 $end
$var wire 8 B RD2 [7:0] $end
$var wire 8 C RD1 [7:0] $end
$var wire 4 D RA2 [3:0] $end
$upscope $end
$scope module memoria_programa $end
$var wire 16 E Data [15:0] $end
$var wire 1 $ clk $end
$var wire 10 F Address [9:0] $end
$upscope $end
$scope module mux_alu $end
$var wire 8 G D0 [7:0] $end
$var wire 8 H D1 [7:0] $end
$var wire 1 ' s $end
$var wire 8 I Y [7:0] $end
$var parameter 32 J WIDTH $end
$upscope $end
$scope module mux_pc $end
$var wire 10 K D0 [9:0] $end
$var wire 1 & s $end
$var wire 10 L Y [9:0] $end
$var wire 10 M D1 [9:0] $end
$var parameter 32 N WIDTH $end
$upscope $end
$scope module mux_reg $end
$var wire 4 O D0 [3:0] $end
$var wire 4 P D1 [3:0] $end
$var wire 1 ' s $end
$var wire 4 Q Y [3:0] $end
$var parameter 32 R WIDTH $end
$upscope $end
$scope module registro_pc $end
$var wire 10 S D [9:0] $end
$var wire 1 $ clk $end
$var wire 1 % reset $end
$var parameter 32 T WIDTH $end
$var reg 10 U Q [9:0] $end
$upscope $end
$scope module registro_zero $end
$var wire 1 ) carga $end
$var wire 1 $ clk $end
$var wire 1 + d $end
$var wire 1 % reset $end
$var reg 1 ! q $end
$upscope $end
$scope module sum_pc $end
$var wire 10 V A [9:0] $end
$var wire 10 W B [9:0] $end
$var wire 10 X Y [9:0] $end
$upscope $end
$upscope $end
$upscope $end
$scope module regA $end
$var wire 1 Y CargaA $end
$var wire 1 Z ResetA $end
$var wire 1 [ clk $end
$var wire 4 \ entA [3:0] $end
$var wire 4 ] q [3:0] $end
$scope module ffa0 $end
$var wire 1 Y carga $end
$var wire 1 [ clk $end
$var wire 1 ^ d $end
$var wire 1 Z reset $end
$var parameter 32 _ retardo $end
$var reg 1 ` q $end
$upscope $end
$scope module ffa1 $end
$var wire 1 Y carga $end
$var wire 1 [ clk $end
$var wire 1 a d $end
$var wire 1 Z reset $end
$var parameter 32 b retardo $end
$var reg 1 c q $end
$upscope $end
$scope module ffa2 $end
$var wire 1 Y carga $end
$var wire 1 [ clk $end
$var wire 1 d d $end
$var wire 1 Z reset $end
$var parameter 32 e retardo $end
$var reg 1 f q $end
$upscope $end
$scope module ffa3 $end
$var wire 1 Y carga $end
$var wire 1 [ clk $end
$var wire 1 g d $end
$var wire 1 Z reset $end
$var parameter 32 h retardo $end
$var reg 1 i q $end
$upscope $end
$upscope $end
$scope module regQ $end
$var wire 1 j CargaQ $end
$var wire 1 k DesplazaQ $end
$var wire 1 l clk $end
$var wire 1 m enable $end
$var wire 3 n entQ [2:0] $end
$var wire 1 o reset $end
$var wire 3 p q [2:0] $end
$scope module ff0 $end
$var wire 1 m carga $end
$var wire 1 l clk $end
$var wire 1 q inp_c $end
$var wire 1 r inp_d $end
$var wire 1 o reset $end
$var wire 1 j selc_d $end
$var wire 1 s q $end
$var wire 1 t inp $end
$scope module ff0 $end
$var wire 1 m carga $end
$var wire 1 l clk $end
$var wire 1 o reset $end
$var wire 1 t d $end
$var parameter 32 u retardo $end
$var reg 1 s q $end
$upscope $end
$scope module mux0 $end
$var wire 1 r a $end
$var wire 1 q b $end
$var wire 1 t out $end
$var wire 1 j s $end
$var wire 1 v s_n $end
$var wire 1 w sa $end
$var wire 1 x sb $end
$upscope $end
$upscope $end
$scope module ff1 $end
$var wire 1 m carga $end
$var wire 1 l clk $end
$var wire 1 y inp_c $end
$var wire 1 z inp_d $end
$var wire 1 o reset $end
$var wire 1 j selc_d $end
$var wire 1 { q $end
$var wire 1 | inp $end
$scope module ff0 $end
$var wire 1 m carga $end
$var wire 1 l clk $end
$var wire 1 o reset $end
$var wire 1 | d $end
$var parameter 32 } retardo $end
$var reg 1 { q $end
$upscope $end
$scope module mux0 $end
$var wire 1 z a $end
$var wire 1 y b $end
$var wire 1 | out $end
$var wire 1 j s $end
$var wire 1 ~ s_n $end
$var wire 1 !" sa $end
$var wire 1 "" sb $end
$upscope $end
$upscope $end
$scope module ff2 $end
$var wire 1 m carga $end
$var wire 1 l clk $end
$var wire 1 #" inp_c $end
$var wire 1 $" inp_d $end
$var wire 1 o reset $end
$var wire 1 j selc_d $end
$var wire 1 %" q $end
$var wire 1 &" inp $end
$scope module ff0 $end
$var wire 1 m carga $end
$var wire 1 l clk $end
$var wire 1 o reset $end
$var wire 1 &" d $end
$var parameter 32 '" retardo $end
$var reg 1 %" q $end
$upscope $end
$scope module mux0 $end
$var wire 1 $" a $end
$var wire 1 #" b $end
$var wire 1 &" out $end
$var wire 1 j s $end
$var wire 1 (" s_n $end
$var wire 1 )" sa $end
$var wire 1 *" sb $end
$upscope $end
$upscope $end
$upscope $end
$scope module sum4 $end
$var wire 4 +" A [3:0] $end
$var wire 4 ," B [3:0] $end
$var wire 1 -" c_in $end
$var wire 1 ." p3 $end
$var wire 1 /" p2 $end
$var wire 1 0" p1 $end
$var wire 1 1" p0 $end
$var wire 1 2" g3 $end
$var wire 1 3" g2 $end
$var wire 1 4" g1 $end
$var wire 1 5" g0 $end
$var wire 1 6" c_out $end
$var wire 1 7" c4 $end
$var wire 1 8" c3 $end
$var wire 1 9" c2 $end
$var wire 1 :" c1 $end
$var wire 4 ;" S [3:0] $end
$var wire 4 <" C [4:1] $end
$scope module cla $end
$var wire 4 =" G [3:0] $end
$var wire 4 >" P [3:0] $end
$var wire 1 -" c_in $end
$var wire 4 ?" C [4:1] $end
$upscope $end
$scope module fa0 $end
$var wire 1 @" a $end
$var wire 1 A" b $end
$var wire 1 -" c_in $end
$var wire 1 :" c_out $end
$var wire 1 5" g $end
$var wire 1 1" p $end
$var wire 1 B" sum_par $end
$var wire 1 C" sum $end
$var wire 1 D" carry2 $end
$var wire 1 E" carry1 $end
$scope module ha1 $end
$var wire 1 @" a $end
$var wire 1 A" b $end
$var wire 1 E" carry $end
$var wire 1 B" sum $end
$upscope $end
$scope module ha2 $end
$var wire 1 -" a $end
$var wire 1 B" b $end
$var wire 1 D" carry $end
$var wire 1 C" sum $end
$upscope $end
$upscope $end
$scope module fa1 $end
$var wire 1 F" a $end
$var wire 1 G" b $end
$var wire 1 H" c_in $end
$var wire 1 9" c_out $end
$var wire 1 4" g $end
$var wire 1 0" p $end
$var wire 1 I" sum_par $end
$var wire 1 J" sum $end
$var wire 1 K" carry2 $end
$var wire 1 L" carry1 $end
$scope module ha1 $end
$var wire 1 F" a $end
$var wire 1 G" b $end
$var wire 1 L" carry $end
$var wire 1 I" sum $end
$upscope $end
$scope module ha2 $end
$var wire 1 H" a $end
$var wire 1 I" b $end
$var wire 1 K" carry $end
$var wire 1 J" sum $end
$upscope $end
$upscope $end
$scope module fa2 $end
$var wire 1 M" a $end
$var wire 1 N" b $end
$var wire 1 O" c_in $end
$var wire 1 8" c_out $end
$var wire 1 3" g $end
$var wire 1 /" p $end
$var wire 1 P" sum_par $end
$var wire 1 Q" sum $end
$var wire 1 R" carry2 $end
$var wire 1 S" carry1 $end
$scope module ha1 $end
$var wire 1 M" a $end
$var wire 1 N" b $end
$var wire 1 S" carry $end
$var wire 1 P" sum $end
$upscope $end
$scope module ha2 $end
$var wire 1 O" a $end
$var wire 1 P" b $end
$var wire 1 R" carry $end
$var wire 1 Q" sum $end
$upscope $end
$upscope $end
$scope module fa3 $end
$var wire 1 T" a $end
$var wire 1 U" b $end
$var wire 1 V" c_in $end
$var wire 1 7" c_out $end
$var wire 1 2" g $end
$var wire 1 ." p $end
$var wire 1 W" sum_par $end
$var wire 1 X" sum $end
$var wire 1 Y" carry2 $end
$var wire 1 Z" carry1 $end
$scope module ha1 $end
$var wire 1 T" a $end
$var wire 1 U" b $end
$var wire 1 Z" carry $end
$var wire 1 W" sum $end
$upscope $end
$scope module ha2 $end
$var wire 1 V" a $end
$var wire 1 W" b $end
$var wire 1 Y" carry $end
$var wire 1 X" sum $end
$upscope $end
$upscope $end
$upscope $end
$scope module uc $end
$var wire 1 [" clk $end
$var wire 1 \" q0 $end
$var wire 1 ]" start $end
$var wire 1 ^" ResetA $end
$var wire 1 _" Fin $end
$var wire 1 `" DesplazaQ $end
$var wire 1 a" CargaQ $end
$var wire 1 b" CargaA $end
$var parameter 3 c" S0 $end
$var parameter 3 d" S1 $end
$var parameter 3 e" S2 $end
$var parameter 3 f" S3 $end
$var parameter 3 g" S4 $end
$var parameter 3 h" S5 $end
$var parameter 3 i" S6 $end
$var parameter 32 j" retardo $end
$var reg 3 k" nextstate [2:0] $end
$var reg 3 l" state [2:0] $end
$upscope $end
$scope module microc_tb $end
$scope module microc1 $end
$scope module banco_registros $end
$var reg 8 m" \R[1] [7:0] $end
$upscope $end
$upscope $end
$upscope $end
$scope module microc_tb $end
$scope module microc1 $end
$scope module banco_registros $end
$var reg 8 n" \R[2] [7:0] $end
$upscope $end
$upscope $end
$upscope $end
$scope module microc_tb $end
$scope module microc1 $end
$scope module banco_registros $end
$var reg 8 o" \R[3] [7:0] $end
$upscope $end
$upscope $end
$upscope $end
$enddefinitions $end
$comment Show the parameter values. $end
$dumpall
b1 j"
b110 i"
b101 h"
b100 g"
b11 f"
b10 e"
b1 d"
b0 c"
b1 '"
b1 }
b1 u
b1 h
b1 e
b1 b
b1 _
b1010 T
b100 R
b1010 N
b1000 J
$end
#0
$dumpvars
b0 o"
b0 n"
b0 m"
bx l"
bx k"
xb"
xa"
x`"
x_"
x^"
z]"
z\"
z["
xZ"
xY"
xX"
xW"
xV"
zU"
zT"
xS"
xR"
xQ"
xP"
xO"
zN"
zM"
xL"
xK"
xJ"
xI"
xH"
zG"
zF"
xE"
xD"
xC"
xB"
zA"
z@"
bx ?"
bx >"
bx ="
bx <"
bx ;"
x:"
x9"
x8"
x7"
x6"
x5"
x4"
x3"
x2"
x1"
x0"
x/"
x."
z-"
bz ,"
bz +"
x*"
0)"
z("
x&"
x%"
0$"
z#"
x""
x!"
z~
x|
x{
xz
zy
xx
xw
zv
xt
xs
xr
zq
bx p
zo
bz n
xm
zl
zk
zj
xi
zg
xf
zd
xc
za
x`
z^
bx ]
bz \
z[
zZ
zY
b1 X
b1 W
b0 V
b0 U
b11 S
b0 Q
b11 P
b0 O
b1 M
b11 L
b11 K
b0 I
b0 H
b0 G
b0 F
b100000000000011 E
b0 D
b0 C
b0 B
b0 A
b11 @
b0 ?
b0 >
b0 =
b0 <
b0 ;
b11 :
b0 9
b100000000000011 8
b10000 7
b0 6
b1 5
b11 4
b0 3
b0 2
b0 1
b0 0
b11 /
b0 .
b0 -
b0 ,
1+
b0 *
0)
0(
0'
0&
1%
1$
b0 #
b10000 "
0!
$end
#200
0%
#500
0$
#1000
b1 4
b1 L
b1 S
b1 /
b1 @
b1 P
b1 :
b1 K
b100 "
b100 7
b100 5
b100 M
b100 X
b1000000000001 8
b1000000000001 E
b11 6
b11 F
b11 U
b11 V
1$
#1500
b1 ,
b1 D
b1 Q
b100 4
b100 L
b100 S
0$
1)
1(
1'
1&
#2000
0+
b10 .
b10 >
b10 A
b10 -
b10 =
b10 I
b10 ,
b10 D
b10 Q
b101 4
b101 L
b101 S
b10 9
b10 H
b10 /
b10 @
b10 P
b10 2
b10 O
b100010 :
b100010 K
b0 m"
b101 5
b101 M
b101 X
b1000000100010 8
b1000000100010 E
b100 6
b100 F
b100 U
b100 V
1!
1$
#2500
0$
#3000
b11 .
b11 >
b11 A
b11 -
b11 =
b11 I
b11 ,
b11 D
b11 Q
b0 0
b0 <
b0 B
b110 4
b110 L
b110 S
b11 9
b11 H
b11 /
b11 @
b11 P
b11 2
b11 O
b110011 :
b110011 K
b10 n"
0!
b110 5
b110 M
b110 X
b1000000110011 8
b1000000110011 E
b101 6
b101 F
b101 U
b101 V
1$
#3500
0$
#4000
b10010 .
b10010 >
b10010 A
b10010 -
b10010 =
b10010 I
b0 ,
b0 D
b0 Q
b0 0
b0 <
b0 B
b111 4
b111 L
b111 S
b10010 9
b10010 H
b0 /
b0 @
b0 P
b10 2
b10 O
b1 3
b1 ?
b100100000 :
b100100000 K
b101100 "
b101100 7
b11 o"
b111 5
b111 M
b111 X
b1011000100100000 8
b1011000100100000 E
b110 6
b110 F
b110 U
b110 V
1$
#4500
b10 0
b10 <
b10 B
0+
b11111110 .
b11111110 >
b11111110 A
b0 -
b0 =
b0 I
b10 ,
b10 D
b10 Q
0$
b11 #
b11 *
b11 ;
0'
#5000
1+
b0 .
b0 >
b0 A
b0 0
b0 <
b0 B
b0 ,
b0 D
b0 Q
b1000 4
b1000 L
b1000 S
b1000000 9
b1000000 H
b1100 /
b1100 @
b1100 P
b0 2
b0 O
b100 3
b100 ?
b1100 :
b1100 K
b10001 "
b10001 7
b1000 5
b1000 M
b1000 X
b100010000001100 8
b100010000001100 E
b111 6
b111 F
b111 U
b111 V
1$
#5500
0$
b0 #
b0 *
b0 ;
0(
#6000
0+
b11 .
b11 >
b11 A
b11 0
b11 <
b11 B
b11 -
b11 =
b11 I
b11 ,
b11 D
b11 Q
b11 1
b11 C
b11 G
b1001 4
b1001 L
b1001 S
b110011 9
b110011 H
b11 /
b11 @
b11 P
b11 2
b11 O
b11 3
b11 ?
b1100110011 :
b1100110011 K
b101000 "
b101000 7
b1001 5
b1001 M
b1001 X
b1010001100110011 8
b1010001100110011 E
b1000 6
b1000 F
b1000 U
b1000 V
1!
1$
#6500
b110 .
b110 >
b110 A
0$
b10 #
b10 *
b10 ;
1(
#7000
1+
b0 -
b0 =
b0 I
b0 .
b0 >
b0 A
b1 ,
b1 D
b1 Q
b0 1
b0 C
b0 G
b0 0
b0 <
b0 B
b1010 4
b1010 L
b1010 S
b1 9
b1 H
b1 /
b1 @
b1 P
b1 2
b1 O
b0 3
b0 ?
b10001 :
b10001 K
b1100 "
b1100 7
b110 o"
0!
b1010 5
b1010 M
b1010 X
b11000000010001 8
b11000000010001 E
b1001 6
b1001 F
b1001 U
b1001 V
1$
#7500
0+
b1 .
b1 >
b1 A
b1 -
b1 =
b1 I
0$
0)
1'
#8000
1+
b0 .
b0 >
b0 A
b0 -
b0 =
b0 I
b0 ,
b0 D
b0 Q
b0 0
b0 <
b0 B
b1011 4
b1011 L
b1011 S
b0 9
b0 H
b0 /
b0 @
b0 P
b0 2
b0 O
b0 :
b0 K
b0 "
b0 7
b1 m"
b1011 5
b1011 M
b1011 X
b0 8
b0 E
b1010 6
b1010 F
b1010 U
b1010 V
1$
#8500
0$
b0 #
b0 *
b0 ;
0(
0'
#9000
b1100 4
b1100 L
b1100 S
b110 /
b110 @
b110 P
b110 :
b110 K
b10000 "
b10000 7
b1100 5
b1100 M
b1100 X
b100000000000110 8
b100000000000110 E
b1011 6
b1011 F
b1011 U
b1011 V
1$
#9500
b110 4
b110 L
b110 S
0$
0&
#10000
0+
b1 .
b1 >
b1 A
b10 0
b10 <
b10 B
b1 -
b1 =
b1 I
b10 ,
b10 D
b10 Q
b1 1
b1 C
b1 G
b100100000 4
b100100000 L
b100100000 S
b10010 9
b10010 H
b0 /
b0 @
b0 P
b10 2
b10 O
b1 3
b1 ?
b100100000 :
b100100000 K
b101100 "
b101100 7
b111 5
b111 M
b111 X
b1011000100100000 8
b1011000100100000 E
b110 6
b110 F
b110 U
b110 V
1$
#10500
b11111111 .
b11111111 >
b11111111 A
b111 4
b111 L
b111 S
0$
b11 #
b11 *
b11 ;
1)
1(
1&
#11000
1+
b0 .
b0 >
b0 A
b0 0
b0 <
b0 B
b0 -
b0 =
b0 I
b0 ,
b0 D
b0 Q
b0 1
b0 C
b0 G
b1000 4
b1000 L
b1000 S
b1000000 9
b1000000 H
b1100 /
b1100 @
b1100 P
b0 2
b0 O
b100 3
b100 ?
b1100 :
b1100 K
b10001 "
b10001 7
b1000 5
b1000 M
b1000 X
b100010000001100 8
b100010000001100 E
b111 6
b111 F
b111 U
b111 V
1$
#11500
0$
b0 #
b0 *
b0 ;
0(
#12000
0+
b110 .
b110 >
b110 A
b110 0
b110 <
b110 B
b110 -
b110 =
b110 I
b11 ,
b11 D
b11 Q
b110 1
b110 C
b110 G
b1001 4
b1001 L
b1001 S
b110011 9
b110011 H
b11 /
b11 @
b11 P
b11 2
b11 O
b11 3
b11 ?
b1100110011 :
b1100110011 K
b101000 "
b101000 7
b1001 5
b1001 M
b1001 X
b1010001100110011 8
b1010001100110011 E
b1000 6
b1000 F
b1000 U
b1000 V
1!
1$
#12500
b1100 .
b1100 >
b1100 A
0$
b10 #
b10 *
b10 ;
1(
#13000
b0 -
b0 =
b0 I
b1 .
b1 >
b1 A
b1 ,
b1 D
b1 Q
b0 1
b0 C
b0 G
b1 0
b1 <
b1 B
b1010 4
b1010 L
b1010 S
b1 9
b1 H
b1 /
b1 @
b1 P
b1 2
b1 O
b0 3
b0 ?
b10001 :
b10001 K
b1100 "
b1100 7
b1100 o"
0!
b1010 5
b1010 M
b1010 X
b11000000010001 8
b11000000010001 E
b1001 6
b1001 F
b1001 U
b1001 V
1$
#13500
b10 .
b10 >
b10 A
b1 -
b1 =
b1 I
0$
0)
1'
#14000
1+
b0 .
b0 >
b0 A
b0 -
b0 =
b0 I
b0 ,
b0 D
b0 Q
b0 0
b0 <
b0 B
b1011 4
b1011 L
b1011 S
b0 9
b0 H
b0 /
b0 @
b0 P
b0 2
b0 O
b0 :
b0 K
b0 "
b0 7
b10 m"
b1011 5
b1011 M
b1011 X
b0 8
b0 E
b1010 6
b1010 F
b1010 U
b1010 V
1$
#14500
0$
b0 #
b0 *
b0 ;
0(
0'
#15000
b1100 4
b1100 L
b1100 S
b110 /
b110 @
b110 P
b110 :
b110 K
b10000 "
b10000 7
b1100 5
b1100 M
b1100 X
b100000000000110 8
b100000000000110 E
b1011 6
b1011 F
b1011 U
b1011 V
1$
#15500
b110 4
b110 L
b110 S
0$
0&
#16000
0+
b10 .
b10 >
b10 A
b10 0
b10 <
b10 B
b10 -
b10 =
b10 I
b10 ,
b10 D
b10 Q
b10 1
b10 C
b10 G
b100100000 4
b100100000 L
b100100000 S
b10010 9
b10010 H
b0 /
b0 @
b0 P
b10 2
b10 O
b1 3
b1 ?
b100100000 :
b100100000 K
b101100 "
b101100 7
b111 5
b111 M
b111 X
b1011000100100000 8
b1011000100100000 E
b110 6
b110 F
b110 U
b110 V
1$
#16500
1+
b0 .
b0 >
b0 A
b111 4
b111 L
b111 S
0$
b11 #
b11 *
b11 ;
1)
1(
1&
#17000
b0 0
b0 <
b0 B
b0 -
b0 =
b0 I
b0 ,
b0 D
b0 Q
b0 1
b0 C
b0 G
b1000 4
b1000 L
b1000 S
b1000000 9
b1000000 H
b1100 /
b1100 @
b1100 P
b0 2
b0 O
b100 3
b100 ?
b1100 :
b1100 K
b10001 "
b10001 7
1!
b1000 5
b1000 M
b1000 X
b100010000001100 8
b100010000001100 E
b111 6
b111 F
b111 U
b111 V
1$
#17500
b1100 4
b1100 L
b1100 S
0$
b0 #
b0 *
b0 ;
0(
0&
#18000
b0 9
b0 H
b0 3
b0 ?
b10000 "
b10000 7
b1101 5
b1101 M
b1101 X
b100000000001100 8
b100000000001100 E
b1100 6
b1100 F
b1100 U
b1100 V
1$
#18500
0$
0)
